[
{
  "model": "auth.user",
  "pk": 1,
  "fields": {
    "password": "pbkdf2_sha256$720000$KGQXfd8RhFkNtBnKrcGK4I$YJX07RtXHPFUW+Pc3Xz4X9quWzNJKfoyLMVSb0J1DwE=",
    "last_login": "2024-03-06T15:17:25.591Z",
    "is_superuser": true,
    "username": "admin",
    "first_name": "",
    "last_name": "",
    "email": "",
    "is_staff": true,
    "is_active": true,
    "date_joined": "2024-03-06T14:57:35.364Z",
    "groups": [],
    "user_permissions": []
  }
},
{
  "model": "auth.user",
  "pk": 2,
  "fields": {
    "password": "pbkdf2_sha256$720000$SmEMQVvoh92d5ugSk9dZx5$M2/UX6mvPYFwOpwkUARMmsb7ID7NTfnUPk45paL0L1M=",
    "last_login": "2024-03-06T15:11:49.508Z",
    "is_superuser": false,
    "username": "user1",
    "first_name": "user1",
    "last_name": "user1",
    "email": "user1@mail.com",
    "is_staff": false,
    "is_active": true,
    "date_joined": "2024-03-06T15:03:26.784Z",
    "groups": [],
    "user_permissions": []
  }
}
]
